^C:\USERS\ANDREY\SOURCE\REPOS\SKILLBOX19\SKILLBOX19\SKILLBOX19.CPP
C:\USERS\ANDREY\SOURCE\REPOS\SKILLBOX19\SKILLBOX19\DEBUG\VC142.PDB
C:\USERS\ANDREY\SOURCE\REPOS\SKILLBOX19\SKILLBOX19\DEBUG\VC142.IDB
C:\USERS\ANDREY\SOURCE\REPOS\SKILLBOX19\SKILLBOX19\DEBUG\SKILLBOX19.OBJ
